text_analysis
…
review_bigrams <- df %>%
  unnest_tokens(bigram, review_body, token = "ngrams", n = 2)
bigrams_separated <- review_bigrams %>%
  separate(bigram, c("word1", "word2"), sep = " ")
bigrams_filtered <- bigrams_separated %>%
  filter(!word1 %in% stop_words$word) %>%
  filter(!word2 %in% stop_words$word)
bigram_counts <- bigrams_filtered %>% 
  count(word1, word2, sort = TRUE)
bigrams_united <- bigrams_filtered %>%
  unite(bigram, word1, word2, sep = " ")
bigrams_united %>%
  count(bigram, sort = TRUE)

## # A tibble: 18,736 x 2
##    bigram               n
##    <chr>            <int>
##  1 museum island     1872
##  2 pergamon museum    929
##  3 neues museum       513
##  4 5 museums          334
##  5 bode museum        287
##  6 museum pass        263
##  7 altes museum       252
##  8 berlin cathedral   219
##  9 river spree        179
## 10 national gallery   168
## # ... with 18,726 more rows
…
trigrams_filtered <- trigrams_separated %>%
  filter(!word1 %in% stop_words$word) %>%
  filter(!word2 %in% stop_words$word) %>%
  filter(!word3 %in% stop_words$word)

trigram_counts <- trigrams_filtered %>% 
  count(word1, word2, word3, sort = TRUE)

trigrams_united <- trigrams_filtered %>%
  unite(trigram, word1, word2, word3, sep = " ")

trigrams_united %>%
  count(trigram, sort = TRUE)

## # A tibble: 8,847 x 2
##    trigram                         n
##    <chr>                       <int>
##  1 world heritage site            77
##  2 museum neues museum            64
##  3 world class museums            55
##  4 unter den linden               51
##  5 unesco world heritage          50
##  6 altes museum neues             44
##  7 museum alte nationalgalerie    38
##  8 3 day pass                     36
##  9 day museum pass                34
## 10 3 day museum                   33
## # ... with 8,837 more rows
…
bigrams_separated %>%
  filter(word1 == "not") %>%
  count(word1, word2, sort = TRUE)

## # A tibble: 456 x 3
##    word1 word2      n
##    <chr> <chr>  <int>
##  1 not   to       137
##  2 not   miss     124
##  3 not   have      99
##  4 not   only      81
##  5 not   be        72
##  6 not   go        71
##  7 not   visit     65
##  8 not   enough    57
##  9 not   a         53
## 10 not   see       49
## # ... with 446 more rows

AFINN <- get_sentiments("afinn")
not_words <- bigrams_separated %>%
  filter(word1 == "not") %>%
  inner_join(AFINN, by = c(word2 = "word")) %>%
  count(word2, value, sort = TRUE) %>%
  ungroup()

not_words

## # A tibble: 76 x 3
##    word2        value     n
##    <chr>        <dbl> <int>
##  1 miss            -2   124
##  2 like             2    34
##  3 want             1    31
##  4 interested       2    17
##  5 leave           -1    15
##  6 forget          -1    14
##  7 worth            2    13
##  8 stop            -1    11
##  9 disappointed    -2    10
## 10 regret          -2    10
## # ... with 66 more rows
…
sentiment_messages <- tidy_reviews %>%
  inner_join(get_sentiments("afinn"), by = "word") %>%
  group_by(`row_number()`) %>%
  summarize(sentiment = mean(value),
            words = n()) %>%
  ungroup() %>%
  filter(words >= 5)

## `summarise()` ungrouping output (override with `.groups` argument)

sentiment_messages %>%
  arrange(desc(sentiment))

## # A tibble: 167 x 3
##    `row_number()` sentiment words
##             <int>     <dbl> <int>
##  1           2005      3.4      5
##  2           4048      3.4      5
##  3           7102      3.4      5
##  4           3798      3.2      5
##  5           1455      3        5
##  6           2094      3        5
##  7           2615      3        5
##  8           6352      3        6
##  9           8458      3        5
## 10           2480      2.86     7
## # ... with 157 more rows

df$RT_Final[2005]

## [1] "Architecture in this area is brilliant and the rivers running around it are beautiful in themselves.   Add to that the museums are not only stunning to look at but contain some fantastic treasures.   They present them well and provide invaluable audio guides to plug into to add"

sentiment_messages %>%
  arrange(sentiment)

## # A tibble: 167 x 3
##    `row_number()` sentiment words
##             <int>     <dbl> <int>
##  1             46    -2.17      6
##  2           7775    -1.6       5
##  3           1288    -1.33      6
##  4           5155    -0.8       5
##  5           6388    -0.667     9
##  6           2870    -0.333     6
##  7           7483    -0.2       5
##  8             37    -0.167     6
##  9           4333     0         6
## 10           7634     0.167     6
## # ... with 157 more rows
…
